"V1","V2","V3","V4","V5","V6"
5.07853014582757e-05,0,0,0,0,0
0,5.07853014582757e-05,0,0,0,0
0,0,5.07853014582757e-05,0,0,0
0,0,0,5.07853014582757e-05,0,0
0,0,0,0,5.07853014582757e-05,0
0,0,0,0,0,5.07853014582757e-05
