"V1","V2","V3","V4","V5","V6"
4.75945966588881e-05,0,0,0,0,0
0,4.75945966588881e-05,0,0,0,0
0,0,4.75945966588881e-05,0,0,0
0,0,0,4.75945966588881e-05,0,0
0,0,0,0,4.75945966588881e-05,0
0,0,0,0,0,4.75945966588881e-05
