"V1","V2","V3","V4","V5","V6"
3.70996418385481e-05,0,0,0,0,0
0,3.70996418385481e-05,0,0,0,0
0,0,3.70996418385481e-05,0,0,0
0,0,0,3.70996418385481e-05,0,0
0,0,0,0,3.70996418385481e-05,0
0,0,0,0,0,3.70996418385481e-05
