"V1","V2","V3","V4","V5","V6"
2.41525604298954e-05,0,0,0,0,0
0,2.41525604298954e-05,0,0,0,0
0,0,2.41525604298954e-05,0,0,0
0,0,0,2.41525604298954e-05,0,0
0,0,0,0,2.41525604298954e-05,0
0,0,0,0,0,2.41525604298954e-05
