"V1","V2","V3","V4","V5","V6"
4.92899457642097e-05,0,0,0,0,0
0,4.92899457642097e-05,0,0,0,0
0,0,4.92899457642097e-05,0,0,0
0,0,0,4.92899457642097e-05,0,0
0,0,0,0,4.92899457642097e-05,0
0,0,0,0,0,4.92899457642097e-05
