"V1","V2","V3","V4","V5","V6"
4.99620056074067e-05,0,0,0,0,0
0,4.99620056074067e-05,0,0,0,0
0,0,4.99620056074067e-05,0,0,0
0,0,0,4.99620056074067e-05,0,0
0,0,0,0,4.99620056074067e-05,0
0,0,0,0,0,4.99620056074067e-05
