"V1","V2","V3","V4","V5","V6"
4.89727294514953e-05,0,0,0,0,0
0,4.89727294514953e-05,0,0,0,0
0,0,4.89727294514953e-05,0,0,0
0,0,0,4.89727294514953e-05,0,0
0,0,0,0,4.89727294514953e-05,0
0,0,0,0,0,4.89727294514953e-05
