"V1","V2","V3","V4","V5","V6"
5.18972032001079e-05,0,0,0,0,0
0,5.18972032001079e-05,0,0,0,0
0,0,5.18972032001079e-05,0,0,0
0,0,0,5.18972032001079e-05,0,0
0,0,0,0,5.18972032001079e-05,0
0,0,0,0,0,5.18972032001079e-05
