"V1","V2","V3","V4","V5","V6"
2.39316740287912e-05,0,0,0,0,0
0,2.39316740287912e-05,0,0,0,0
0,0,2.39316740287912e-05,0,0,0
0,0,0,2.39316740287912e-05,0,0
0,0,0,0,2.39316740287912e-05,0
0,0,0,0,0,2.39316740287912e-05
