"V1","V2","V3","V4","V5","V6"
4.58939113144975e-05,0,0,0,0,0
0,4.58939113144975e-05,0,0,0,0
0,0,4.58939113144975e-05,0,0,0
0,0,0,4.58939113144975e-05,0,0
0,0,0,0,4.58939113144975e-05,0
0,0,0,0,0,4.58939113144975e-05
