"V1","V2","V3","V4","V5","V6"
5.34547847986273e-05,0,0,0,0,0
0,5.34547847986273e-05,0,0,0,0
0,0,5.34547847986273e-05,0,0,0
0,0,0,5.34547847986273e-05,0,0
0,0,0,0,5.34547847986273e-05,0
0,0,0,0,0,5.34547847986273e-05
