"V1","V2","V3","V4","V5","V6"
3.59106404220577e-05,0,0,0,0,0
0,3.59106404220577e-05,0,0,0,0
0,0,3.59106404220577e-05,0,0,0
0,0,0,3.59106404220577e-05,0,0
0,0,0,0,3.59106404220577e-05,0
0,0,0,0,0,3.59106404220577e-05
