"V1","V2","V3","V4","V5","V6"
2.37933909051848e-05,0,0,0,0,0
0,2.37933909051848e-05,0,0,0,0
0,0,2.37933909051848e-05,0,0,0
0,0,0,2.37933909051848e-05,0,0
0,0,0,0,2.37933909051848e-05,0
0,0,0,0,0,2.37933909051848e-05
